<svg xmlns="http://www.w3.org/2000/svg" id="icon-bi-6-square-fill" fill="currentColor" viewBox="0 0 16 16">
  <path d="M8.111 7.863c-.92 0-1.564.65-1.564 1.576 0 1.032.703 1.635 1.558 1.635.868 0 1.553-.533 1.553-1.629 0-1.06-.744-1.582-1.547-1.582"/>
  <path d="M2 0a2 2 0 0 0-2 2v12a2 2 0 0 0 2 2h12a2 2 0 0 0 2-2V2a2 2 0 0 0-2-2zm6.21 3.855c1.612 0 2.515.99 2.573 1.899H9.494c-.1-.358-.51-.815-1.312-.815-1.078 0-1.817 1.09-1.805 3.036h.082c.229-.545.855-1.155 1.98-1.155 1.254 0 2.508.88 2.508 2.555 0 1.77-1.218 2.783-2.847 2.783-.932 0-1.84-.328-2.409-1.254-.369-.603-.597-1.459-.597-2.642 0-3.012 1.248-4.407 3.117-4.407Z"/>
</svg>