<svg xmlns="http://www.w3.org/2000/svg" id="icon-bi-7-square" fill="currentColor" viewBox="0 0 16 16">
  <path d="M5.37 5.11V4.001h5.308V5.15L7.42 12H6.025l3.317-6.82v-.07H5.369Z"/>
  <path d="M0 2a2 2 0 0 1 2-2h12a2 2 0 0 1 2 2v12a2 2 0 0 1-2 2H2a2 2 0 0 1-2-2zm15 0a1 1 0 0 0-1-1H2a1 1 0 0 0-1 1v12a1 1 0 0 0 1 1h12a1 1 0 0 0 1-1z"/>
</svg>