<svg xmlns="http://www.w3.org/2000/svg" id="icon-bi-badge-4k-fill" fill="currentColor" viewBox="0 0 16 16">
  <path d="M3.577 8.9v.03h1.828V5.898h-.062a47 47 0 0 0-1.766 3.001z"/>
  <path d="M2 2a2 2 0 0 0-2 2v8a2 2 0 0 0 2 2h12a2 2 0 0 0 2-2V4a2 2 0 0 0-2-2zm2.372 3.715.435-.714h1.71v3.93h.733v.957h-.733V11H5.405V9.888H2.5v-.971c.574-1.077 1.225-2.142 1.872-3.202m7.73-.714h1.306l-2.14 2.584L13.5 11h-1.428l-1.679-2.624-.615.7V11H8.59V5.001h1.187v2.686h.057L12.102 5z"/>
</svg>