<svg xmlns="http://www.w3.org/2000/svg" id="icon-bi-building-fill-slash" fill="currentColor" viewBox="0 0 16 16">
  <path d="M13.879 10.414a2.501 2.501 0 0 0-3.465 3.465zm.707.707-3.465 3.465a2.501 2.501 0 0 0 3.465-3.465m-4.56-1.096a3.5 3.5 0 1 1 4.949 4.95 3.5 3.5 0 0 1-4.95-4.95Z"/>
  <path d="M2 1a1 1 0 0 1 1-1h10a1 1 0 0 1 1 1v7.256A4.5 4.5 0 0 0 12.5 8a4.5 4.5 0 0 0-3.59 1.787A.5.5 0 0 0 9 9.5v-1a.5.5 0 0 0-.5-.5h-1a.5.5 0 0 0-.5.5v1a.5.5 0 0 0 .5.5h1a.5.5 0 0 0 .39-.187A4.5 4.5 0 0 0 8.027 12H6.5a.5.5 0 0 0-.5.5V16H3a1 1 0 0 1-1-1zm2 1.5v1a.5.5 0 0 0 .5.5h1a.5.5 0 0 0 .5-.5v-1a.5.5 0 0 0-.5-.5h-1a.5.5 0 0 0-.5.5m3 0v1a.5.5 0 0 0 .5.5h1a.5.5 0 0 0 .5-.5v-1a.5.5 0 0 0-.5-.5h-1a.5.5 0 0 0-.5.5m3.5-.5a.5.5 0 0 0-.5.5v1a.5.5 0 0 0 .5.5h1a.5.5 0 0 0 .5-.5v-1a.5.5 0 0 0-.5-.5zM4 5.5v1a.5.5 0 0 0 .5.5h1a.5.5 0 0 0 .5-.5v-1a.5.5 0 0 0-.5-.5h-1a.5.5 0 0 0-.5.5M7.5 5a.5.5 0 0 0-.5.5v1a.5.5 0 0 0 .5.5h1a.5.5 0 0 0 .5-.5v-1a.5.5 0 0 0-.5-.5zm2.5.5v1a.5.5 0 0 0 .5.5h1a.5.5 0 0 0 .5-.5v-1a.5.5 0 0 0-.5-.5h-1a.5.5 0 0 0-.5.5M4.5 8a.5.5 0 0 0-.5.5v1a.5.5 0 0 0 .5.5h1a.5.5 0 0 0 .5-.5v-1a.5.5 0 0 0-.5-.5z"/>
</svg>