<svg xmlns="http://www.w3.org/2000/svg" id="icon-bi-calendar3-week" fill="currentColor" viewBox="0 0 16 16">
  <path d="M14 0H2a2 2 0 0 0-2 2v12a2 2 0 0 0 2 2h12a2 2 0 0 0 2-2V2a2 2 0 0 0-2-2M1 3.857C1 3.384 1.448 3 2 3h12c.552 0 1 .384 1 .857v10.286c0 .473-.448.857-1 .857H2c-.552 0-1-.384-1-.857z"/>
  <path d="M12 7a1 1 0 1 0 0-2 1 1 0 0 0 0 2m-5 3a1 1 0 1 0 0-2 1 1 0 0 0 0 2m2-3a1 1 0 1 0 0-2 1 1 0 0 0 0 2m-5 3a1 1 0 1 0 0-2 1 1 0 0 0 0 2"/>
</svg>