<svg xmlns="http://www.w3.org/2000/svg" id="icon-bi-calendar2-range" fill="currentColor" viewBox="0 0 16 16">
  <path d="M3.5 0a.5.5 0 0 1 .5.5V1h8V.5a.5.5 0 0 1 1 0V1h1a2 2 0 0 1 2 2v11a2 2 0 0 1-2 2H2a2 2 0 0 1-2-2V3a2 2 0 0 1 2-2h1V.5a.5.5 0 0 1 .5-.5M2 2a1 1 0 0 0-1 1v11a1 1 0 0 0 1 1h12a1 1 0 0 0 1-1V3a1 1 0 0 0-1-1z"/>
  <path d="M2.5 4a.5.5 0 0 1 .5-.5h10a.5.5 0 0 1 .5.5v1a.5.5 0 0 1-.5.5H3a.5.5 0 0 1-.5-.5zM9 8a1 1 0 0 1 1-1h5v2h-5a1 1 0 0 1-1-1m-8 2h4a1 1 0 1 1 0 2H1z"/>
</svg>