<svg xmlns="http://www.w3.org/2000/svg" id="icon-bi-caret-right-square" fill="currentColor" viewBox="0 0 16 16">
  <path d="M14 1a1 1 0 0 1 1 1v12a1 1 0 0 1-1 1H2a1 1 0 0 1-1-1V2a1 1 0 0 1 1-1zM2 0a2 2 0 0 0-2 2v12a2 2 0 0 0 2 2h12a2 2 0 0 0 2-2V2a2 2 0 0 0-2-2z"/>
  <path d="M5.795 12.456A.5.5 0 0 1 5.5 12V4a.5.5 0 0 1 .832-.374l4.5 4a.5.5 0 0 1 0 .748l-4.5 4a.5.5 0 0 1-.537.082"/>
</svg>