<svg xmlns="http://www.w3.org/2000/svg" id="icon-bi-disc" fill="currentColor" viewBox="0 0 16 16">
  <path d="M8 15A7 7 0 1 1 8 1a7 7 0 0 1 0 14m0 1A8 8 0 1 0 8 0a8 8 0 0 0 0 16"/>
  <path d="M10 8a2 2 0 1 1-4 0 2 2 0 0 1 4 0M8 4a4 4 0 0 0-4 4 .5.5 0 0 1-1 0 5 5 0 0 1 5-5 .5.5 0 0 1 0 1m4.5 3.5a.5.5 0 0 1 .5.5 5 5 0 0 1-5 5 .5.5 0 0 1 0-1 4 4 0 0 0 4-4 .5.5 0 0 1 .5-.5"/>
</svg>