<svg xmlns="http://www.w3.org/2000/svg" id="icon-bi-distribute-horizontal" fill="currentColor" viewBox="0 0 16 16">
  <path fill-rule="evenodd" d="M14.5 1a.5.5 0 0 0-.5.5v13a.5.5 0 0 0 1 0v-13a.5.5 0 0 0-.5-.5m-13 0a.5.5 0 0 0-.5.5v13a.5.5 0 0 0 1 0v-13a.5.5 0 0 0-.5-.5"/>
  <path d="M6 13a1 1 0 0 0 1 1h2a1 1 0 0 0 1-1V3a1 1 0 0 0-1-1H7a1 1 0 0 0-1 1z"/>
</svg>