<svg xmlns="http://www.w3.org/2000/svg" id="icon-bi-emoji-dizzy" fill="currentColor" viewBox="0 0 16 16">
  <path d="M8 15A7 7 0 1 1 8 1a7 7 0 0 1 0 14m0 1A8 8 0 1 0 8 0a8 8 0 0 0 0 16"/>
  <path d="M9.146 5.146a.5.5 0 0 1 .708 0l.646.647.646-.647a.5.5 0 0 1 .708.708l-.647.646.647.646a.5.5 0 0 1-.708.708l-.646-.647-.646.647a.5.5 0 1 1-.708-.708l.647-.646-.647-.646a.5.5 0 0 1 0-.708m-5 0a.5.5 0 0 1 .708 0l.646.647.646-.647a.5.5 0 1 1 .708.708l-.647.646.647.646a.5.5 0 1 1-.708.708L5.5 7.207l-.646.647a.5.5 0 1 1-.708-.708l.647-.646-.647-.646a.5.5 0 0 1 0-.708M10 11a2 2 0 1 1-4 0 2 2 0 0 1 4 0"/>
</svg>