<svg xmlns="http://www.w3.org/2000/svg" id="icon-bi-emoji-angry" fill="currentColor" viewBox="0 0 16 16">
  <path d="M8 15A7 7 0 1 1 8 1a7 7 0 0 1 0 14m0 1A8 8 0 1 0 8 0a8 8 0 0 0 0 16"/>
  <path d="M4.285 12.433a.5.5 0 0 0 .683-.183A3.5 3.5 0 0 1 8 10.5c1.295 0 2.426.703 3.032 1.75a.5.5 0 0 0 .866-.5A4.5 4.5 0 0 0 8 9.5a4.5 4.5 0 0 0-3.898 2.25.5.5 0 0 0 .183.683m6.991-8.38a.5.5 0 1 1 .448.894l-1.009.504c.176.27.285.64.285 1.049 0 .828-.448 1.5-1 1.5s-1-.672-1-1.5c0-.247.04-.48.11-.686a.502.502 0 0 1 .166-.761zm-6.552 0a.5.5 0 0 0-.448.894l1.009.504A1.94 1.94 0 0 0 5 6.5C5 7.328 5.448 8 6 8s1-.672 1-1.5c0-.247-.04-.48-.11-.686a.502.502 0 0 0-.166-.761z"/>
</svg>