<svg xmlns="http://www.w3.org/2000/svg" id="icon-bi-envelope-heart-fill" fill="currentColor" viewBox="0 0 16 16">
  <path d="M.05 3.555A2 2 0 0 1 2 2h12a2 2 0 0 1 1.95 1.555l-4.2 2.568-.051-.105c-.666-1.3-2.363-1.917-3.699-1.25-1.336-.667-3.033-.05-3.699 1.25l-.05.105zM11.584 8.91l-.073.139L16 11.8V4.697l-4.003 2.447c.027.562-.107 1.163-.413 1.767Zm-4.135 3.05c-1.048-.693-1.84-1.39-2.398-2.082L.19 12.856A2 2 0 0 0 2 14h12a2 2 0 0 0 1.808-1.144L10.95 9.878c-.559.692-1.35 1.389-2.398 2.081L8 12.324l-.551-.365ZM4.416 8.91c-.306-.603-.44-1.204-.413-1.766L0 4.697v7.104l4.49-2.752z"/>
  <path d="M8 5.993c1.664-1.711 5.825 1.283 0 5.132-5.825-3.85-1.664-6.843 0-5.132"/>
</svg>