<svg xmlns="http://www.w3.org/2000/svg" id="icon-bi-fast-forward-circle" fill="currentColor" viewBox="0 0 16 16">
  <path d="M8 15A7 7 0 1 1 8 1a7 7 0 0 1 0 14m0 1A8 8 0 1 0 8 0a8 8 0 0 0 0 16"/>
  <path d="M4.271 5.055a.5.5 0 0 1 .52.038L8 7.386V5.5a.5.5 0 0 1 .79-.407l3.5 2.5a.5.5 0 0 1 0 .814l-3.5 2.5A.5.5 0 0 1 8 10.5V8.614l-3.21 2.293A.5.5 0 0 1 4 10.5v-5a.5.5 0 0 1 .271-.445"/>
</svg>