<svg xmlns="http://www.w3.org/2000/svg" id="icon-bi-file-lock2" fill="currentColor" viewBox="0 0 16 16">
  <path d="M8 5a1 1 0 0 1 1 1v1H7V6a1 1 0 0 1 1-1m2 2.076V6a2 2 0 1 0-4 0v1.076c-.54.166-1 .597-1 1.224v2.4c0 .816.781 1.3 1.5 1.3h3c.719 0 1.5-.484 1.5-1.3V8.3c0-.627-.46-1.058-1-1.224"/>
  <path d="M4 0a2 2 0 0 0-2 2v12a2 2 0 0 0 2 2h8a2 2 0 0 0 2-2V2a2 2 0 0 0-2-2zm0 1h8a1 1 0 0 1 1 1v12a1 1 0 0 1-1 1H4a1 1 0 0 1-1-1V2a1 1 0 0 1 1-1"/>
</svg>