<svg xmlns="http://www.w3.org/2000/svg" id="icon-bi-file-earmark-ppt-fill" fill="currentColor" viewBox="0 0 16 16">
  <path d="M8.188 10H7V6.5h1.188a1.75 1.75 0 1 1 0 3.5"/>
  <path d="M4 0h5.293A1 1 0 0 1 10 .293L13.707 4a1 1 0 0 1 .293.707V14a2 2 0 0 1-2 2H4a2 2 0 0 1-2-2V2a2 2 0 0 1 2-2m5.5 1.5v2a1 1 0 0 0 1 1h2zM7 5.5a1 1 0 0 0-1 1V13a.5.5 0 0 0 1 0v-2h1.188a2.75 2.75 0 0 0 0-5.5z"/>
</svg>