<svg xmlns="http://www.w3.org/2000/svg" id="icon-bi-file-earmark-spreadsheet-fill" fill="currentColor" viewBox="0 0 16 16">
  <path d="M6 12v-2h3v2z"/>
  <path d="M9.293 0H4a2 2 0 0 0-2 2v12a2 2 0 0 0 2 2h8a2 2 0 0 0 2-2V4.707A1 1 0 0 0 13.707 4L10 .293A1 1 0 0 0 9.293 0M9.5 3.5v-2l3 3h-2a1 1 0 0 1-1-1M3 9h10v1h-3v2h3v1h-3v2H9v-2H6v2H5v-2H3v-1h2v-2H3z"/>
</svg>