<svg xmlns="http://www.w3.org/2000/svg" id="icon-bi-folder-x" fill="currentColor" viewBox="0 0 16 16">
  <path d="M.54 3.87.5 3a2 2 0 0 1 2-2h3.672a2 2 0 0 1 1.414.586l.828.828A2 2 0 0 0 9.828 3h3.982a2 2 0 0 1 1.992 2.181L15.546 8H14.54l.265-2.91A1 1 0 0 0 13.81 4H2.19a1 1 0 0 0-.996 1.09l.637 7a1 1 0 0 0 .995.91H9v1H2.826a2 2 0 0 1-1.991-1.819l-.637-7a2 2 0 0 1 .342-1.31zm6.339-1.577A1 1 0 0 0 6.172 2H2.5a1 1 0 0 0-1 .981l.006.139q.323-.119.684-.12h5.396z"/>
  <path d="M11.854 10.146a.5.5 0 0 0-.707.708L12.293 12l-1.146 1.146a.5.5 0 0 0 .707.708L13 12.707l1.146 1.147a.5.5 0 0 0 .708-.708L13.707 12l1.147-1.146a.5.5 0 0 0-.707-.708L13 11.293z"/>
</svg>