<svg xmlns="http://www.w3.org/2000/svg" id="icon-bi-folder-minus" fill="currentColor" viewBox="0 0 16 16">
  <path d="m.5 3 .04.87a2 2 0 0 0-.342 1.311l.637 7A2 2 0 0 0 2.826 14H9v-1H2.826a1 1 0 0 1-.995-.91l-.637-7A1 1 0 0 1 2.19 4h11.62a1 1 0 0 1 .996 1.09L14.54 8h1.005l.256-2.819A2 2 0 0 0 13.81 3H9.828a2 2 0 0 1-1.414-.586l-.828-.828A2 2 0 0 0 6.172 1H2.5a2 2 0 0 0-2 2m5.672-1a1 1 0 0 1 .707.293L7.586 3H2.19q-.362.002-.683.12L1.5 2.98a1 1 0 0 1 1-.98z"/>
  <path d="M11 11.5a.5.5 0 0 1 .5-.5h4a.5.5 0 1 1 0 1h-4a.5.5 0 0 1-.5-.5"/>
</svg>