<svg xmlns="http://www.w3.org/2000/svg" id="icon-bi-hdd-stack" fill="currentColor" viewBox="0 0 16 16">
  <path d="M14 10a1 1 0 0 1 1 1v1a1 1 0 0 1-1 1H2a1 1 0 0 1-1-1v-1a1 1 0 0 1 1-1zM2 9a2 2 0 0 0-2 2v1a2 2 0 0 0 2 2h12a2 2 0 0 0 2-2v-1a2 2 0 0 0-2-2z"/>
  <path d="M5 11.5a.5.5 0 1 1-1 0 .5.5 0 0 1 1 0m-2 0a.5.5 0 1 1-1 0 .5.5 0 0 1 1 0M14 3a1 1 0 0 1 1 1v1a1 1 0 0 1-1 1H2a1 1 0 0 1-1-1V4a1 1 0 0 1 1-1zM2 2a2 2 0 0 0-2 2v1a2 2 0 0 0 2 2h12a2 2 0 0 0 2-2V4a2 2 0 0 0-2-2z"/>
  <path d="M5 4.5a.5.5 0 1 1-1 0 .5.5 0 0 1 1 0m-2 0a.5.5 0 1 1-1 0 .5.5 0 0 1 1 0"/>
</svg>