<svg xmlns="http://www.w3.org/2000/svg" id="icon-bi-house-down-fill" fill="currentColor" viewBox="0 0 16 16">
  <path d="M12.5 9a3.5 3.5 0 1 1 0 7 3.5 3.5 0 0 1 0-7m.354 5.854 1.5-1.5a.5.5 0 0 0-.708-.707l-.646.646V10.5a.5.5 0 0 0-1 0v2.793l-.646-.646a.5.5 0 0 0-.708.707l1.5 1.5a.5.5 0 0 0 .708 0"/>
  <path d="M8.707 1.5a1 1 0 0 0-1.414 0L.646 8.146a.5.5 0 0 0 .708.708L8 2.207l6.646 6.647a.5.5 0 0 0 .708-.708L13 5.793V2.5a.5.5 0 0 0-.5-.5h-1a.5.5 0 0 0-.5.5v1.293z"/>
  <path d="m8 3.293 4.712 4.712A4.5 4.5 0 0 0 8.758 15H3.5A1.5 1.5 0 0 1 2 13.5V9.293z"/>
</svg>