<svg xmlns="http://www.w3.org/2000/svg" id="icon-bi-input-cursor-text" fill="currentColor" viewBox="0 0 16 16">
  <path fill-rule="evenodd" d="M5 2a.5.5 0 0 1 .5-.5c.862 0 1.573.287 2.06.566.174.099.321.198.44.286.119-.088.266-.187.44-.286A4.17 4.17 0 0 1 10.5 1.5a.5.5 0 0 1 0 1c-.638 0-1.177.213-1.564.434a3.5 3.5 0 0 0-.436.294V7.5H9a.5.5 0 0 1 0 1h-.5v4.272c.1.08.248.187.436.294.387.221.926.434 1.564.434a.5.5 0 0 1 0 1 4.17 4.17 0 0 1-2.06-.566A5 5 0 0 1 8 13.65a5 5 0 0 1-.44.285 4.17 4.17 0 0 1-2.06.566.5.5 0 0 1 0-1c.638 0 1.177-.213 1.564-.434.188-.107.335-.214.436-.294V8.5H7a.5.5 0 0 1 0-1h.5V3.228a3.5 3.5 0 0 0-.436-.294A3.17 3.17 0 0 0 5.5 2.5.5.5 0 0 1 5 2"/>
  <path d="M10 5h4a1 1 0 0 1 1 1v4a1 1 0 0 1-1 1h-4v1h4a2 2 0 0 0 2-2V6a2 2 0 0 0-2-2h-4zM6 5V4H2a2 2 0 0 0-2 2v4a2 2 0 0 0 2 2h4v-1H2a1 1 0 0 1-1-1V6a1 1 0 0 1 1-1z"/>
</svg>