<svg xmlns="http://www.w3.org/2000/svg" id="icon-bi-person-fill-dash" fill="currentColor" viewBox="0 0 16 16">
  <path d="M12.5 16a3.5 3.5 0 1 0 0-7 3.5 3.5 0 0 0 0 7M11 12h3a.5.5 0 0 1 0 1h-3a.5.5 0 0 1 0-1m0-7a3 3 0 1 1-6 0 3 3 0 0 1 6 0"/>
  <path d="M2 13c0 1 1 1 1 1h5.256A4.5 4.5 0 0 1 8 12.5a4.5 4.5 0 0 1 1.544-3.393Q8.844 9.002 8 9c-5 0-6 3-6 4"/>
</svg>