<svg xmlns="http://www.w3.org/2000/svg" id="icon-bi-person-rolodex" fill="currentColor" viewBox="0 0 16 16">
  <path d="M8 9.05a2.5 2.5 0 1 0 0-5 2.5 2.5 0 0 0 0 5"/>
  <path d="M1 1a1 1 0 0 0-1 1v11a1 1 0 0 0 1 1h.5a.5.5 0 0 0 .5-.5.5.5 0 0 1 1 0 .5.5 0 0 0 .5.5h9a.5.5 0 0 0 .5-.5.5.5 0 0 1 1 0 .5.5 0 0 0 .5.5h.5a1 1 0 0 0 1-1V3a1 1 0 0 0-1-1H6.707L6 1.293A1 1 0 0 0 5.293 1zm0 1h4.293L6 2.707A1 1 0 0 0 6.707 3H15v10h-.085a1.5 1.5 0 0 0-2.4-.63C11.885 11.223 10.554 10 8 10c-2.555 0-3.886 1.224-4.514 2.37a1.5 1.5 0 0 0-2.4.63H1z"/>
</svg>