<svg xmlns="http://www.w3.org/2000/svg" id="icon-bi-repeat-1" fill="currentColor" viewBox="0 0 16 16">
  <path d="M11 4v1.466a.25.25 0 0 0 .41.192l2.36-1.966a.25.25 0 0 0 0-.384l-2.36-1.966a.25.25 0 0 0-.41.192V3H5a5 5 0 0 0-4.48 7.223.5.5 0 0 0 .896-.446A4 4 0 0 1 5 4zm4.48 1.777a.5.5 0 0 0-.896.446A4 4 0 0 1 11 12H5.001v-1.466a.25.25 0 0 0-.41-.192l-2.36 1.966a.25.25 0 0 0 0 .384l2.36 1.966a.25.25 0 0 0 .41-.192V13h6a5 5 0 0 0 4.48-7.223Z"/>
  <path d="M9 5.5a.5.5 0 0 0-.854-.354l-1.75 1.75a.5.5 0 1 0 .708.708L8 6.707V10.5a.5.5 0 0 0 1 0z"/>
</svg>