<svg xmlns="http://www.w3.org/2000/svg" id="icon-bi-rewind-fill" fill="currentColor" viewBox="0 0 16 16">
  <path d="M8.404 7.304a.802.802 0 0 0 0 1.392l6.363 3.692c.52.302 1.233-.043 1.233-.696V4.308c0-.653-.713-.998-1.233-.696z"/>
  <path d="M.404 7.304a.802.802 0 0 0 0 1.392l6.363 3.692c.52.302 1.233-.043 1.233-.696V4.308c0-.653-.713-.998-1.233-.696z"/>
</svg>