<svg xmlns="http://www.w3.org/2000/svg" id="icon-bi-sign-merge-right" fill="currentColor" viewBox="0 0 16 16">
  <path d="M8.75 6v1q.211.451.588.95c.537.716 1.259 1.44 2.016 2.196l-.708.708-.015-.016c-.652-.652-1.33-1.33-1.881-2.015V12h-1.5V6H6.034a.25.25 0 0 1-.192-.41l1.966-2.36a.25.25 0 0 1 .384 0l1.966 2.36a.25.25 0 0 1-.192.41z"/>
  <path fill-rule="evenodd" d="M9.05.435c-.58-.58-1.52-.58-2.1 0L.436 6.95c-.58.58-.58 1.519 0 2.098l6.516 6.516c.58.58 1.519.58 2.098 0l6.516-6.516c.58-.58.58-1.519 0-2.098zm-1.4.7a.495.495 0 0 1 .7 0l6.516 6.515a.495.495 0 0 1 0 .7L8.35 14.866a.495.495 0 0 1-.7 0L1.134 8.35a.495.495 0 0 1 0-.7L7.65 1.134Z"/>
</svg>