<svg xmlns="http://www.w3.org/2000/svg" id="icon-bi-sign-intersection" fill="currentColor" viewBox="0 0 16 16">
  <path d="M7.25 4v3.25H4v1.5h3.25V12h1.5V8.75H12v-1.5H8.75V4z"/>
  <path d="M9.05.435c-.58-.58-1.52-.58-2.1 0L.436 6.95c-.58.58-.58 1.519 0 2.098l6.516 6.516c.58.58 1.519.58 2.098 0l6.516-6.516c.58-.58.58-1.519 0-2.098zm-1.4.7a.495.495 0 0 1 .7 0l6.516 6.515a.495.495 0 0 1 0 .7L8.35 14.866a.495.495 0 0 1-.7 0L1.134 8.35a.495.495 0 0 1 0-.7L7.65 1.134Z"/>
</svg>