<svg xmlns="http://www.w3.org/2000/svg" id="icon-bi-sort-alpha-up" fill="currentColor" viewBox="0 0 16 16">
  <path fill-rule="evenodd" d="M10.082 5.629 9.664 7H8.598l1.789-5.332h1.234L13.402 7h-1.12l-.419-1.371zm1.57-.785L11 2.687h-.047l-.652 2.157z"/>
  <path d="M12.96 14H9.028v-.691l2.579-3.72v-.054H9.098v-.867h3.785v.691l-2.567 3.72v.054h2.645zm-8.46-.5a.5.5 0 0 1-1 0V3.707L2.354 4.854a.5.5 0 1 1-.708-.708l2-1.999.007-.007a.5.5 0 0 1 .7.006l2 2a.5.5 0 1 1-.707.708L4.5 3.707z"/>
</svg>