<svg xmlns="http://www.w3.org/2000/svg" id="icon-bi-spellcheck" fill="currentColor" viewBox="0 0 16 16">
  <path d="M8.217 11.068c1.216 0 1.948-.869 1.948-2.31v-.702c0-1.44-.727-2.305-1.929-2.305-.742 0-1.328.347-1.499.889h-.063V3.983h-1.29V11h1.27v-.791h.064c.21.532.776.86 1.499.86zm-.43-1.025c-.66 0-1.113-.518-1.113-1.28V8.12c0-.825.42-1.343 1.098-1.343.684 0 1.075.518 1.075 1.416v.45c0 .888-.386 1.401-1.06 1.401zm-5.583 1.035c.767 0 1.201-.356 1.406-.737h.059V11h1.216V7.519c0-1.314-.947-1.783-2.11-1.783C1.355 5.736.75 6.42.69 7.27h1.216c.064-.323.313-.552.84-.552s.864.249.864.771v.464H2.346C1.145 7.953.5 8.568.5 9.496c0 .977.693 1.582 1.704 1.582m.42-.947c-.44 0-.845-.235-.845-.718 0-.395.269-.684.84-.684h.991v.538c0 .503-.444.864-.986.864m8.897.567c-.577-.4-.9-1.088-.9-1.983v-.65c0-1.42.894-2.338 2.305-2.338 1.352 0 2.119.82 2.139 1.806h-1.187c-.04-.351-.283-.776-.918-.776-.674 0-1.045.517-1.045 1.328v.625c0 .468.121.834.343 1.067z"/>
  <path d="M14.469 9.414a.75.75 0 0 1 .117 1.055l-4 5a.75.75 0 0 1-1.116.061l-2.5-2.5a.75.75 0 1 1 1.06-1.06l1.908 1.907 3.476-4.346a.75.75 0 0 1 1.055-.117"/>
</svg>