<svg xmlns="http://www.w3.org/2000/svg" id="icon-bi-terminal-x" fill="currentColor" viewBox="0 0 16 16">
  <path d="M2 3a1 1 0 0 0-1 1v8a1 1 0 0 0 1 1h5.5a.5.5 0 0 1 0 1H2a2 2 0 0 1-2-2V4a2 2 0 0 1 2-2h11a2 2 0 0 1 2 2v4a.5.5 0 0 1-1 0V4a1 1 0 0 0-1-1z"/>
  <path d="M3.146 5.146a.5.5 0 0 1 .708 0L5.177 6.47a.75.75 0 0 1 0 1.06L3.854 8.854a.5.5 0 1 1-.708-.708L4.293 7 3.146 5.854a.5.5 0 0 1 0-.708M5.5 9a.5.5 0 0 1 .5-.5h2a.5.5 0 0 1 0 1H6a.5.5 0 0 1-.5-.5M16 12.5a3.5 3.5 0 1 1-7 0 3.5 3.5 0 0 1 7 0m-4.854-1.354a.5.5 0 0 0 0 .708l.647.646-.647.646a.5.5 0 0 0 .708.708l.646-.647.646.647a.5.5 0 0 0 .708-.708l-.647-.646.647-.646a.5.5 0 0 0-.708-.708l-.646.647-.646-.647a.5.5 0 0 0-.708 0"/>
</svg>